  id   | nb_sales_by_store 
-------+-------------------
 Dune2 |              1117
 Dune3 |               963
 Dune1 |               886
(3 lignes)

          city          | nb_sales_by_city 
------------------------+------------------
 Autoilius              |             1117
 Koogusôlius Cabocio Ju |              963
 Si 3                   |              886
(3 lignes)

       sector        | nb_sales_by_sector 
---------------------+--------------------
 Iueàhulus           |               2080
 Loiqualoïéfriillius |                886
(2 lignes)

 store_by_ca_and_geography |  ca   | ca_sort |          city          |       sector        
---------------------------+-------+---------+------------------------+---------------------
 Dune2                     | 83863 | >=75000 | Autoilius              | Iueàhulus
 Dune3                     | 72937 | <75000  | Koogusôlius Cabocio Ju | Iueàhulus
 Dune1                     | 67224 | <70000  | Si 3                   | Loiqualoïéfriillius
(3 lignes)

          city          | ca_by_city 
------------------------+------------
 Autoilius              |      83863
 Koogusôlius Cabocio Ju |      72937
 Si 3                   |      67224
(3 lignes)

       sector        | ca_by_sector 
---------------------+--------------
 Iueàhulus           |       156800
 Loiqualoïéfriillius |        67224
(2 lignes)

DROP VIEW
CREATE VIEW
   dates    | nb_sales | ca_by_date | month | quarter | semester | week | year 
------------+----------+------------+-------+---------+----------+------+------
            |       58 |       4650 |       |         |          |      | 
 7046-09-07 |       35 |       2895 | 09    | 3       | 2        | 37   | 7046
 7046-01-07 |       26 |       1959 | 01    | 1       | 1        | 02   | 7046
 7046-02-07 |       24 |       1836 | 02    | 1       | 1        | 06   | 7046
 7046-09-26 |       23 |       1299 | 09    | 3       | 2        | 39   | 7046
 7046-09-20 |       22 |       1337 | 09    | 3       | 2        | 38   | 7046
 7046-09-23 |       22 |       1701 | 09    | 3       | 2        | 39   | 7046
 7046-03-05 |       22 |       1337 | 03    | 1       | 1        | 10   | 7046
 7046-04-12 |       20 |       1548 | 04    | 2       | 1        | 15   | 7046
 7046-02-23 |       20 |       1187 | 02    | 1       | 1        | 09   | 7046
 7046-02-05 |       19 |       1616 | 02    | 1       | 1        | 06   | 7046
 7046-03-28 |       19 |       1363 | 03    | 1       | 1        | 13   | 7046
 7046-02-11 |       19 |       1697 | 02    | 1       | 1        | 07   | 7046
 7046-09-05 |       19 |       1497 | 09    | 3       | 2        | 36   | 7046
 7046-02-10 |       19 |       1711 | 02    | 1       | 1        | 07   | 7046
 7046-03-25 |       18 |        799 | 03    | 1       | 1        | 13   | 7046
 7046-03-26 |       18 |       1411 | 03    | 1       | 1        | 13   | 7046
 7046-07-27 |       18 |       1351 | 07    | 3       | 2        | 31   | 7046
 7046-01-21 |       18 |       1608 | 01    | 1       | 1        | 04   | 7046
 7046-06-30 |       18 |       1568 | 06    | 2       | 1        | 27   | 7046
 7046-01-23 |       18 |       1208 | 01    | 1       | 1        | 04   | 7046
 7046-07-20 |       18 |       1046 | 07    | 3       | 2        | 30   | 7046
 7046-04-26 |       18 |       1275 | 04    | 2       | 1        | 17   | 7046
 7046-01-02 |       17 |       1455 | 01    | 1       | 1        | 01   | 7046
 7046-09-16 |       17 |       1185 | 09    | 3       | 2        | 38   | 7046
 7046-09-21 |       17 |       1322 | 09    | 3       | 2        | 39   | 7046
 7046-12-27 |       17 |       1498 | 12    | 4       | 2        | 52   | 7046
 7046-11-30 |       17 |       1133 | 11    | 4       | 2        | 49   | 7046
 7046-11-07 |       16 |       1021 | 11    | 4       | 2        | 45   | 7046
 7046-01-31 |       16 |       1201 | 01    | 1       | 1        | 05   | 7046
 7046-04-09 |       16 |       1166 | 04    | 2       | 1        | 15   | 7046
 7046-09-29 |       16 |       1241 | 09    | 3       | 2        | 40   | 7046
 7046-07-10 |       16 |        805 | 07    | 3       | 2        | 28   | 7046
 7046-01-19 |       16 |       1217 | 01    | 1       | 1        | 04   | 7046
 7046-06-08 |       16 |       1093 | 06    | 2       | 1        | 24   | 7046
 7046-09-01 |       16 |       1064 | 09    | 3       | 2        | 36   | 7046
 7046-07-25 |       16 |        958 | 07    | 3       | 2        | 30   | 7046
 7046-03-27 |       16 |       1038 | 03    | 1       | 1        | 13   | 7046
 7046-07-08 |       16 |       1195 | 07    | 3       | 2        | 28   | 7046
 7046-02-20 |       16 |       1336 | 02    | 1       | 1        | 08   | 7046
 7046-03-21 |       16 |       1191 | 03    | 1       | 1        | 12   | 7046
 7046-03-31 |       15 |       1251 | 03    | 1       | 1        | 14   | 7046
 7046-09-06 |       15 |       1019 | 09    | 3       | 2        | 36   | 7046
 7046-11-17 |       15 |       1207 | 11    | 4       | 2        | 47   | 7046
 7046-01-15 |       15 |        858 | 01    | 1       | 1        | 03   | 7046
 7046-09-11 |       15 |       1246 | 09    | 3       | 2        | 37   | 7046
 7046-07-07 |       15 |       1221 | 07    | 3       | 2        | 28   | 7046
 7046-01-25 |       15 |        937 | 01    | 1       | 1        | 04   | 7046
 7046-01-26 |       15 |       1079 | 01    | 1       | 1        | 05   | 7046
 7046-09-27 |       15 |       1005 | 09    | 3       | 2        | 39   | 7046
 7046-11-05 |       15 |       1087 | 11    | 4       | 2        | 45   | 7046
 7046-03-15 |       15 |        965 | 03    | 1       | 1        | 11   | 7046
 7046-03-24 |       14 |       1007 | 03    | 1       | 1        | 13   | 7046
 7046-07-12 |       14 |        710 | 07    | 3       | 2        | 28   | 7046
 7046-09-18 |       14 |        925 | 09    | 3       | 2        | 38   | 7046
 7046-01-14 |       14 |        870 | 01    | 1       | 1        | 03   | 7046
 7046-01-10 |       14 |        950 | 01    | 1       | 1        | 02   | 7046
 7046-01-11 |       13 |        975 | 01    | 1       | 1        | 02   | 7046
 7046-11-29 |       13 |        448 | 11    | 4       | 2        | 48   | 7046
 7046-03-18 |       13 |       1076 | 03    | 1       | 1        | 12   | 7046
 7046-09-28 |       13 |        862 | 09    | 3       | 2        | 40   | 7046
 7046-09-25 |       13 |        971 | 09    | 3       | 2        | 39   | 7046
 7046-06-23 |       13 |       1335 | 06    | 2       | 1        | 26   | 7046
 7046-09-12 |       13 |       1037 | 09    | 3       | 2        | 37   | 7046
 7046-11-09 |       13 |        947 | 11    | 4       | 2        | 46   | 7046
 7046-02-09 |       13 |       1054 | 02    | 1       | 1        | 07   | 7046
 7046-01-24 |       13 |        857 | 01    | 1       | 1        | 04   | 7046
 7046-04-16 |       13 |       1344 | 04    | 2       | 1        | 16   | 7046
 7046-08-02 |       13 |        862 | 08    | 3       | 2        | 31   | 7046
 7046-03-10 |       13 |       1093 | 03    | 1       | 1        | 11   | 7046
 7046-07-13 |       13 |        931 | 07    | 3       | 2        | 29   | 7046
 7046-02-18 |       13 |        715 | 02    | 1       | 1        | 08   | 7046
 7046-09-08 |       13 |       1128 | 09    | 3       | 2        | 37   | 7046
 7046-09-30 |       13 |        886 | 09    | 3       | 2        | 40   | 7046
 7046-03-19 |       13 |       1235 | 03    | 1       | 1        | 12   | 7046
 7046-03-12 |       12 |       1109 | 03    | 1       | 1        | 11   | 7046
 7046-09-03 |       12 |        958 | 09    | 3       | 2        | 36   | 7046
 7046-12-23 |       12 |        762 | 12    | 4       | 2        | 52   | 7046
 7046-12-26 |       12 |        932 | 12    | 4       | 2        | 52   | 7046
 7046-09-14 |       12 |        548 | 09    | 3       | 2        | 38   | 7046
 7046-07-18 |       12 |        824 | 07    | 3       | 2        | 29   | 7046
 7046-07-15 |       12 |       1230 | 07    | 3       | 2        | 29   | 7046
 7046-09-02 |       12 |        994 | 09    | 3       | 2        | 36   | 7046
 7046-11-19 |       12 |        833 | 11    | 4       | 2        | 47   | 7046
 7046-07-24 |       12 |        811 | 07    | 3       | 2        | 30   | 7046
 7046-08-25 |       12 |       1017 | 08    | 3       | 2        | 35   | 7046
 7046-03-02 |       12 |        999 | 03    | 1       | 1        | 10   | 7046
 7046-07-06 |       12 |        763 | 07    | 3       | 2        | 28   | 7046
 7046-06-04 |       12 |        738 | 06    | 2       | 1        | 23   | 7046
 7046-05-29 |       12 |        956 | 05    | 2       | 1        | 22   | 7046
 7046-03-07 |       12 |       1141 | 03    | 1       | 1        | 10   | 7046
 7046-01-18 |       11 |        803 | 01    | 1       | 1        | 03   | 7046
 7046-06-10 |       11 |        583 | 06    | 2       | 1        | 24   | 7046
 7046-09-04 |       11 |        916 | 09    | 3       | 2        | 36   | 7046
 7046-09-15 |       11 |        668 | 09    | 3       | 2        | 38   | 7046
 7046-03-06 |       11 |        822 | 03    | 1       | 1        | 10   | 7046
 7046-08-01 |       11 |        764 | 08    | 3       | 2        | 31   | 7046
 7046-02-19 |       11 |        907 | 02    | 1       | 1        | 08   | 7046
 7046-06-17 |       11 |        709 | 06    | 2       | 1        | 25   | 7046
 7046-06-12 |       11 |        488 | 06    | 2       | 1        | 24   | 7046
 7046-07-19 |       11 |        692 | 07    | 3       | 2        | 29   | 7046
 7046-04-20 |       11 |        760 | 04    | 2       | 1        | 17   | 7046
 7046-02-21 |       11 |        680 | 02    | 1       | 1        | 08   | 7046
 7046-01-28 |       11 |        762 | 01    | 1       | 1        | 05   | 7046
 7046-06-20 |       11 |        697 | 06    | 2       | 1        | 25   | 7046
 7046-03-08 |       11 |        753 | 03    | 1       | 1        | 10   | 7046
 7046-08-05 |       11 |        968 | 08    | 3       | 2        | 32   | 7046
 7046-06-11 |       11 |        930 | 06    | 2       | 1        | 24   | 7046
 7046-11-27 |       11 |        701 | 11    | 4       | 2        | 48   | 7046
 7046-06-26 |       11 |        679 | 06    | 2       | 1        | 26   | 7046
 7046-04-19 |       11 |        527 | 04    | 2       | 1        | 16   | 7046
 7046-09-19 |       11 |        743 | 09    | 3       | 2        | 38   | 7046
 7046-03-23 |       11 |        824 | 03    | 1       | 1        | 13   | 7046
 7046-07-04 |       11 |        977 | 07    | 3       | 2        | 27   | 7046
 7046-12-10 |       11 |        724 | 12    | 4       | 2        | 50   | 7046
 7046-05-14 |       11 |        926 | 05    | 2       | 1        | 20   | 7046
 7046-01-20 |       11 |        943 | 01    | 1       | 1        | 04   | 7046
 7046-01-27 |       11 |        636 | 01    | 1       | 1        | 05   | 7046
 7046-02-08 |       10 |        610 | 02    | 1       | 1        | 06   | 7046
 7046-08-06 |       10 |        747 | 08    | 3       | 2        | 32   | 7046
 7046-02-04 |       10 |        728 | 02    | 1       | 1        | 06   | 7046
 7046-06-02 |       10 |        666 | 06    | 2       | 1        | 23   | 7046
 7046-11-28 |       10 |        711 | 11    | 4       | 2        | 48   | 7046
 7046-02-06 |       10 |       1063 | 02    | 1       | 1        | 06   | 7046
 7046-06-15 |       10 |        505 | 06    | 2       | 1        | 25   | 7046
 7046-09-22 |       10 |        849 | 09    | 3       | 2        | 39   | 7046
 7046-06-25 |       10 |        752 | 06    | 2       | 1        | 26   | 7046
 7046-12-07 |       10 |        696 | 12    | 4       | 2        | 50   | 7046
 7046-04-23 |       10 |        635 | 04    | 2       | 1        | 17   | 7046
 7046-11-01 |       10 |        840 | 11    | 4       | 2        | 44   | 7046
 7046-02-27 |       10 |        355 | 02    | 1       | 1        | 09   | 7046
 7046-03-11 |       10 |        917 | 03    | 1       | 1        | 11   | 7046
 7046-02-02 |       10 |        628 | 02    | 1       | 1        | 06   | 7046
 7046-04-13 |       10 |        804 | 04    | 2       | 1        | 16   | 7046
 7046-01-29 |       10 |        697 | 01    | 1       | 1        | 05   | 7046
 7046-12-04 |        9 |        931 | 12    | 4       | 2        | 49   | 7046
 7046-08-22 |        9 |        752 | 08    | 3       | 2        | 34   | 7046
 7046-06-05 |        9 |        588 | 06    | 2       | 1        | 23   | 7046
 7046-02-13 |        9 |        397 | 02    | 1       | 1        | 07   | 7046
 7046-11-06 |        9 |        659 | 11    | 4       | 2        | 45   | 7046
 7046-06-09 |        9 |        537 | 06    | 2       | 1        | 24   | 7046
 7046-10-22 |        9 |        630 | 10    | 4       | 2        | 43   | 7046
 7046-08-23 |        9 |        606 | 08    | 3       | 2        | 34   | 7046
 7046-07-31 |        9 |        758 | 07    | 3       | 2        | 31   | 7046
 7046-11-20 |        9 |        742 | 11    | 4       | 2        | 47   | 7046
 7046-08-08 |        9 |        611 | 08    | 3       | 2        | 32   | 7046
 7046-01-12 |        9 |        636 | 01    | 1       | 1        | 03   | 7046
 7046-09-10 |        9 |        605 | 09    | 3       | 2        | 37   | 7046
 7046-02-15 |        9 |        722 | 02    | 1       | 1        | 07   | 7046
 7046-03-03 |        9 |        888 | 03    | 1       | 1        | 10   | 7046
 7046-07-23 |        9 |        446 | 07    | 3       | 2        | 30   | 7046
 7046-07-22 |        9 |        664 | 07    | 3       | 2        | 30   | 7046
 7046-04-24 |        9 |        837 | 04    | 2       | 1        | 17   | 7046
 7046-02-22 |        9 |        659 | 02    | 1       | 1        | 08   | 7046
 7046-08-20 |        9 |        566 | 08    | 3       | 2        | 34   | 7046
 7046-08-17 |        9 |        927 | 08    | 3       | 2        | 34   | 7046
 7046-06-14 |        9 |        844 | 06    | 2       | 1        | 24   | 7046
 7046-11-21 |        9 |        540 | 11    | 4       | 2        | 47   | 7046
 7046-01-04 |        8 |        426 | 01    | 1       | 1        | 01   | 7046
 7046-05-31 |        8 |        666 | 05    | 2       | 1        | 22   | 7046
 7046-05-13 |        8 |        367 | 05    | 2       | 1        | 20   | 7046
 7046-06-27 |        8 |        566 | 06    | 2       | 1        | 26   | 7046
 7046-07-02 |        8 |        553 | 07    | 3       | 2        | 27   | 7046
 7046-12-25 |        8 |        484 | 12    | 4       | 2        | 52   | 7046
 7046-06-18 |        8 |        809 | 06    | 2       | 1        | 25   | 7046
 7046-04-02 |        8 |        384 | 04    | 2       | 1        | 14   | 7046
 7046-07-17 |        8 |        581 | 07    | 3       | 2        | 29   | 7046
 7046-10-03 |        8 |        837 | 10    | 4       | 2        | 40   | 7046
 7046-09-24 |        8 |        479 | 09    | 3       | 2        | 39   | 7046
 7046-02-12 |        8 |        776 | 02    | 1       | 1        | 07   | 7046
 7046-11-12 |        8 |        575 | 11    | 4       | 2        | 46   | 7046
 7046-07-05 |        8 |        785 | 07    | 3       | 2        | 27   | 7046
 7046-01-22 |        8 |        617 | 01    | 1       | 1        | 04   | 7046
 7046-12-18 |        8 |        491 | 12    | 4       | 2        | 51   | 7046
 7046-03-30 |        8 |        640 | 03    | 1       | 1        | 14   | 7046
 7046-11-22 |        8 |        388 | 11    | 4       | 2        | 47   | 7046
 7046-03-04 |        8 |        757 | 03    | 1       | 1        | 10   | 7046
 7046-05-09 |        8 |        802 | 05    | 2       | 1        | 19   | 7046
 7046-09-13 |        8 |        454 | 09    | 3       | 2        | 37   | 7046
 7046-02-17 |        8 |        756 | 02    | 1       | 1        | 08   | 7046
 7046-03-13 |        8 |        436 | 03    | 1       | 1        | 11   | 7046
 7046-05-26 |        8 |        657 | 05    | 2       | 1        | 22   | 7046
 7046-12-01 |        8 |        615 | 12    | 4       | 2        | 49   | 7046
 7046-02-25 |        8 |        578 | 02    | 1       | 1        | 09   | 7046
 7046-11-26 |        8 |        467 | 11    | 4       | 2        | 48   | 7046
 7046-07-14 |        8 |        720 | 07    | 3       | 2        | 29   | 7046
 7046-10-24 |        8 |        715 | 10    | 4       | 2        | 43   | 7046
 7046-05-11 |        8 |        564 | 05    | 2       | 1        | 20   | 7046
 7046-11-02 |        8 |        591 | 11    | 4       | 2        | 45   | 7046
 7046-08-21 |        8 |        434 | 08    | 3       | 2        | 34   | 7046
 7046-07-30 |        8 |        539 | 07    | 3       | 2        | 31   | 7046
 7046-06-21 |        8 |        890 | 06    | 2       | 1        | 25   | 7046
 7046-01-09 |        8 |        604 | 01    | 1       | 1        | 02   | 7046
 7046-11-04 |        8 |        750 | 11    | 4       | 2        | 45   | 7046
 7046-02-24 |        8 |        793 | 02    | 1       | 1        | 09   | 7046
 7046-07-11 |        8 |        499 | 07    | 3       | 2        | 28   | 7046
 7046-01-03 |        8 |        783 | 01    | 1       | 1        | 01   | 7046
 7046-10-05 |        7 |        370 | 10    | 4       | 2        | 41   | 7046
 7046-10-25 |        7 |        476 | 10    | 4       | 2        | 43   | 7046
 7046-11-15 |        7 |        503 | 11    | 4       | 2        | 46   | 7046
 7046-09-09 |        7 |        532 | 09    | 3       | 2        | 37   | 7046
 7046-04-06 |        7 |        426 | 04    | 2       | 1        | 15   | 7046
 7046-04-17 |        7 |        534 | 04    | 2       | 1        | 16   | 7046
 7046-04-27 |        7 |        475 | 04    | 2       | 1        | 18   | 7046
 7046-08-30 |        7 |        733 | 08    | 3       | 2        | 35   | 7046
 7046-01-30 |        7 |        475 | 01    | 1       | 1        | 05   | 7046
 7046-10-13 |        7 |        515 | 10    | 4       | 2        | 42   | 7046
 7046-04-25 |        7 |        818 | 04    | 2       | 1        | 17   | 7046
 7046-07-29 |        7 |        342 | 07    | 3       | 2        | 31   | 7046
 7046-01-08 |        7 |        771 | 01    | 1       | 1        | 02   | 7046
 7046-09-17 |        7 |        658 | 09    | 3       | 2        | 38   | 7046
 7046-06-13 |        7 |        628 | 06    | 2       | 1        | 24   | 7046
 7046-11-03 |        6 |        567 | 11    | 4       | 2        | 45   | 7046
 7046-12-12 |        6 |        608 | 12    | 4       | 2        | 50   | 7046
 7046-07-28 |        6 |        322 | 07    | 3       | 2        | 31   | 7046
 7046-01-17 |        6 |        532 | 01    | 1       | 1        | 03   | 7046
 7046-11-25 |        6 |        524 | 11    | 4       | 2        | 48   | 7046
 7046-11-11 |        6 |        593 | 11    | 4       | 2        | 46   | 7046
 7046-12-14 |        6 |        532 | 12    | 4       | 2        | 51   | 7046
 7046-12-09 |        6 |        619 | 12    | 4       | 2        | 50   | 7046
 7046-04-04 |        6 |        460 | 04    | 2       | 1        | 14   | 7046
 7046-07-01 |        6 |        486 | 07    | 3       | 2        | 27   | 7046
 7046-04-01 |        6 |        561 | 04    | 2       | 1        | 14   | 7046
 7046-03-17 |        6 |        375 | 03    | 1       | 1        | 12   | 7046
 7046-08-14 |        6 |        517 | 08    | 3       | 2        | 33   | 7046
 7046-12-24 |        6 |        577 | 12    | 4       | 2        | 52   | 7046
 7046-01-05 |        6 |        426 | 01    | 1       | 1        | 02   | 7046
 7046-11-18 |        6 |        322 | 11    | 4       | 2        | 47   | 7046
 7046-08-26 |        6 |        284 | 08    | 3       | 2        | 35   | 7046
 7046-12-17 |        6 |        440 | 12    | 4       | 2        | 51   | 7046
 7046-06-07 |        6 |        292 | 06    | 2       | 1        | 23   | 7046
 7046-04-08 |        6 |        461 | 04    | 2       | 1        | 15   | 7046
 7046-07-16 |        6 |        330 | 07    | 3       | 2        | 29   | 7046
 7046-11-13 |        6 |        550 | 11    | 4       | 2        | 46   | 7046
 7046-02-01 |        6 |        475 | 02    | 1       | 1        | 05   | 7046
 7046-03-22 |        6 |        542 | 03    | 1       | 1        | 12   | 7046
 7046-05-28 |        6 |        724 | 05    | 2       | 1        | 22   | 7046
 7046-12-05 |        6 |        512 | 12    | 4       | 2        | 49   | 7046
 7046-03-29 |        6 |        397 | 03    | 1       | 1        | 13   | 7046
 7046-10-12 |        5 |        210 | 10    | 4       | 2        | 42   | 7046
 7046-12-19 |        5 |        322 | 12    | 4       | 2        | 51   | 7046
 7046-08-18 |        5 |        419 | 08    | 3       | 2        | 34   | 7046
 7046-05-15 |        5 |        376 | 05    | 2       | 1        | 20   | 7046
 7046-06-29 |        5 |        481 | 06    | 2       | 1        | 27   | 7046
 7046-01-16 |        5 |        421 | 01    | 1       | 1        | 03   | 7046
 7046-06-19 |        5 |        331 | 06    | 2       | 1        | 25   | 7046
 7046-12-15 |        5 |        365 | 12    | 4       | 2        | 51   | 7046
 7046-06-28 |        5 |        446 | 06    | 2       | 1        | 26   | 7046
 7046-04-07 |        5 |        181 | 04    | 2       | 1        | 15   | 7046
 7046-08-13 |        5 |        295 | 08    | 3       | 2        | 33   | 7046
 7046-11-08 |        5 |        256 | 11    | 4       | 2        | 45   | 7046
 7046-11-10 |        5 |        444 | 11    | 4       | 2        | 46   | 7046
 7046-10-18 |        5 |        435 | 10    | 4       | 2        | 42   | 7046
 7046-12-22 |        5 |        242 | 12    | 4       | 2        | 52   | 7046
 7046-07-03 |        5 |        423 | 07    | 3       | 2        | 27   | 7046
 7046-05-20 |        5 |        401 | 05    | 2       | 1        | 21   | 7046
 7046-02-28 |        5 |        300 | 02    | 1       | 1        | 09   | 7046
 7046-10-06 |        5 |        374 | 10    | 4       | 2        | 41   | 7046
 7046-12-20 |        5 |        622 | 12    | 4       | 2        | 51   | 7046
 7046-07-09 |        5 |        338 | 07    | 3       | 2        | 28   | 7046
 7046-03-09 |        5 |        732 | 03    | 1       | 1        | 11   | 7046
 7046-04-14 |        5 |        256 | 04    | 2       | 1        | 16   | 7046
 7046-04-03 |        5 |        484 | 04    | 2       | 1        | 14   | 7046
 7046-04-18 |        5 |        301 | 04    | 2       | 1        | 16   | 7046
 7046-02-14 |        5 |        160 | 02    | 1       | 1        | 07   | 7046
 7046-04-30 |        5 |        370 | 04    | 2       | 1        | 18   | 7046
 7046-12-21 |        4 |        493 | 12    | 4       | 2        | 52   | 7046
 7046-12-08 |        4 |        372 | 12    | 4       | 2        | 50   | 7046
 7046-08-09 |        4 |        359 | 08    | 3       | 2        | 32   | 7046
 7046-07-26 |        4 |        312 | 07    | 3       | 2        | 30   | 7046
 7046-05-19 |        4 |        322 | 05    | 2       | 1        | 21   | 7046
 7046-05-27 |        4 |        256 | 05    | 2       | 1        | 22   | 7046
 7046-06-01 |        4 |        246 | 06    | 2       | 1        | 23   | 7046
 7046-12-02 |        4 |        242 | 12    | 4       | 2        | 49   | 7046
 7046-04-29 |        4 |        302 | 04    | 2       | 1        | 18   | 7046
 7046-02-26 |        4 |        404 | 02    | 1       | 1        | 09   | 7046
 7046-04-15 |        4 |        302 | 04    | 2       | 1        | 16   | 7046
 7046-10-14 |        4 |        277 | 10    | 4       | 2        | 42   | 7046
 7046-01-01 |        4 |        269 | 01    | 1       | 1        | 01   | 7046
 7046-05-25 |        4 |        441 | 05    | 2       | 1        | 22   | 7046
 7046-10-29 |        4 |        272 | 10    | 4       | 2        | 44   | 7046
 7046-02-16 |        4 |        230 | 02    | 1       | 1        | 08   | 7046
 7046-05-23 |        4 |        272 | 05    | 2       | 1        | 21   | 7046
 7046-08-31 |        4 |        463 | 08    | 3       | 2        | 36   | 7046
 7046-08-12 |        4 |        303 | 08    | 3       | 2        | 33   | 7046
 7046-05-06 |        4 |        315 | 05    | 2       | 1        | 19   | 7046
 7046-05-22 |        4 |        355 | 05    | 2       | 1        | 21   | 7046
 7046-03-14 |        4 |        157 | 03    | 1       | 1        | 11   | 7046
 7046-10-31 |        4 |        206 | 10    | 4       | 2        | 44   | 7046
 7046-06-22 |        4 |        293 | 06    | 2       | 1        | 26   | 7046
 7046-11-23 |        4 |        433 | 11    | 4       | 2        | 48   | 7046
 7046-08-15 |        4 |        256 | 08    | 3       | 2        | 33   | 7046
 7046-06-24 |        4 |        269 | 06    | 2       | 1        | 26   | 7046
 7046-08-28 |        4 |        266 | 08    | 3       | 2        | 35   | 7046
 7046-05-18 |        3 |        145 | 05    | 2       | 1        | 21   | 7046
 7046-11-14 |        3 |        293 | 11    | 4       | 2        | 46   | 7046
 7046-07-21 |        3 |        145 | 07    | 3       | 2        | 30   | 7046
 7046-10-04 |        3 |        239 | 10    | 4       | 2        | 40   | 7046
 7046-08-03 |        3 |        189 | 08    | 3       | 2        | 32   | 7046
 7046-05-16 |        3 |        307 | 05    | 2       | 1        | 20   | 7046
 7046-01-13 |        3 |        200 | 01    | 1       | 1        | 03   | 7046
 7046-03-16 |        3 |        213 | 03    | 1       | 1        | 12   | 7046
 7046-10-17 |        3 |        227 | 10    | 4       | 2        | 42   | 7046
 7046-12-11 |        3 |        200 | 12    | 4       | 2        | 50   | 7046
 7046-11-24 |        3 |        143 | 11    | 4       | 2        | 48   | 7046
 7046-04-10 |        3 |        303 | 04    | 2       | 1        | 15   | 7046
 7046-10-15 |        3 |        386 | 10    | 4       | 2        | 42   | 7046
 7046-01-06 |        3 |        344 | 01    | 1       | 1        | 02   | 7046
 7046-08-11 |        3 |        254 | 08    | 3       | 2        | 33   | 7046
 7046-12-13 |        3 |         81 | 12    | 4       | 2        | 50   | 7046
 7046-10-07 |        3 |        235 | 10    | 4       | 2        | 41   | 7046
 7046-03-20 |        3 |        254 | 03    | 1       | 1        | 12   | 7046
 7046-10-30 |        3 |        256 | 10    | 4       | 2        | 44   | 7046
 7046-05-05 |        3 |        135 | 05    | 2       | 1        | 19   | 7046
 7046-10-26 |        3 |        203 | 10    | 4       | 2        | 44   | 7046
 7046-08-27 |        3 |         94 | 08    | 3       | 2        | 35   | 7046
 7046-08-07 |        3 |         99 | 08    | 3       | 2        | 32   | 7046
 7046-06-03 |        3 |        199 | 06    | 2       | 1        | 23   | 7046
 7046-06-16 |        2 |        108 | 06    | 2       | 1        | 25   | 7046
 7046-04-22 |        2 |         22 | 04    | 2       | 1        | 17   | 7046
 7046-10-02 |        2 |        204 | 10    | 4       | 2        | 40   | 7046
 7046-04-21 |        2 |        149 | 04    | 2       | 1        | 17   | 7046
 7046-12-28 |        2 |        131 | 12    | 4       | 2        | 53   | 7046
 7046-12-16 |        2 |        180 | 12    | 4       | 2        | 51   | 7046
 7046-04-11 |        2 |        139 | 04    | 2       | 1        | 15   | 7046
 7046-08-29 |        2 |        184 | 08    | 3       | 2        | 35   | 7046
 7046-10-27 |        2 |        133 | 10    | 4       | 2        | 44   | 7046
 7046-04-05 |        2 |        107 | 04    | 2       | 1        | 14   | 7046
 7046-05-21 |        2 |        307 | 05    | 2       | 1        | 21   | 7046
 7046-04-28 |        2 |         91 | 04    | 2       | 1        | 18   | 7046
 7046-02-03 |        2 |        143 | 02    | 1       | 1        | 06   | 7046
 7046-06-06 |        2 |         71 | 06    | 2       | 1        | 23   | 7046
 7046-05-03 |        2 |        307 | 05    | 2       | 1        | 18   | 7046
 7046-08-16 |        1 |         35 | 08    | 3       | 2        | 33   | 7046
 7046-11-16 |        1 |         77 | 11    | 4       | 2        | 47   | 7046
 7046-12-29 |        1 |        181 | 12    | 4       | 2        | 53   | 7046
 7046-10-08 |        1 |         67 | 10    | 4       | 2        | 41   | 7046
 7046-05-24 |        1 |         19 | 05    | 2       | 1        | 21   | 7046
 7046-10-20 |        1 |         37 | 10    | 4       | 2        | 43   | 7046
 7046-12-31 |        1 |         48 | 12    | 4       | 2        | 53   | 7046
 7046-05-04 |        1 |         10 | 05    | 2       | 1        | 19   | 7046
 7046-10-16 |        1 |         73 | 10    | 4       | 2        | 42   | 7046
 7046-08-19 |        1 |        118 | 08    | 3       | 2        | 34   | 7046
 7046-08-04 |        1 |        123 | 08    | 3       | 2        | 32   | 7046
 7046-10-19 |        1 |         13 | 10    | 4       | 2        | 43   | 7046
 7046-08-10 |        1 |         37 | 08    | 3       | 2        | 33   | 7046
 7046-05-07 |        1 |         18 | 05    | 2       | 1        | 19   | 7046
 7046-05-08 |        1 |            | 05    | 2       | 1        | 19   | 7046
 7046-10-11 |        1 |         37 | 10    | 4       | 2        | 41   | 7046
 7046-12-30 |        1 |         42 | 12    | 4       | 2        | 53   | 7046
(350 lignes)

 nb_sales_month | month 
----------------+-------
            429 | 09 
            346 | 01 
            337 | 03 
            313 | 07 
            300 | 02 
            257 | 11 
            253 | 06 
            218 | 04 
            177 | 08 
            176 | 12 
            120 | 05 
            100 | 10 
             58 | 
(13 lignes)

 nb_sales_quarter | quarter 
------------------+---------
              983 | 1  
              919 | 3  
              591 | 2  
              533 | 4  
               58 | 
(5 lignes)

 nb_sales_semester | semester 
-------------------+----------
              1574 | 1  
              1452 | 2  
                58 | 
(3 lignes)

 nb_sales_week | week 
---------------+------
           108 | 39 
           102 | 13 
           100 | 37 
            99 | 04 
            94 | 38 
            89 | 36 
            86 | 28 
            85 | 06 
            85 | 10 
            82 | 07 
            77 | 02 
            76 | 05 
            74 | 24 
            72 | 08 
            72 | 31 
            71 | 30 
            70 | 29 
            67 | 11 
            67 | 45 
            64 | 52 
            63 | 03 
            61 | 27 
            60 | 12 
            60 | 47 
            59 | 15 
            59 | 17 
            58 | 
            55 | 16 
            55 | 48 
            55 | 25 
            55 | 26 
            55 | 09 
            55 | 40 
            50 | 34 
            50 | 14 
            48 | 46 
            46 | 23 
            44 | 49 
            43 | 50 
            42 | 22 
            41 | 32 
            37 | 51 
            37 | 01 
            35 | 20 
            34 | 35 
            28 | 42 
            26 | 43 
            26 | 44 
            24 | 33 
            23 | 21 
            20 | 18 
            18 | 19 
            17 | 41 
             5 | 53 
(54 lignes)

 ca_by_month | month 
-------------+-------
       31024 | 09 
       25722 | 03 
       25519 | 01 
       22516 | 02 
       21757 | 07 
       18345 | 11 
       18341 | 06 
       16022 | 04 
       13942 | 12 
       13282 | 08 
        9648 | 05 
        7427 | 10 
        4650 | 
(13 lignes)

 ca_by_quarter | quarter 
---------------+---------
         73757 | 1  
         66063 | 3  
         44011 | 2  
         39714 | 4  
          4650 | 
(5 lignes)

 ca_by_semester | semester 
----------------+----------
         117768 | 1  
         105777 | 2  
           4650 | 
(3 lignes)

 ca_by_week | week 
------------+------
       7897 | 37 
       7626 | 39 
       7387 | 04 
       6911 | 36 
       6839 | 13 
       6697 | 10 
       6624 | 06 
       6517 | 07 
       6064 | 38 
       6029 | 02 
       5531 | 28 
       5409 | 11 
       5325 | 05 
       5308 | 29 
       5283 | 08 
       5273 | 27 
       5103 | 24 
       4988 | 52 
       4938 | 31 
       4931 | 45 
       4886 | 12 
       4650 | 
       4496 | 17 
       4382 | 30 
       4340 | 26 
       4320 | 03 
       4269 | 40 
       4224 | 15 
       4109 | 47 
       4068 | 16 
       4049 | 25 
       3905 | 46 
       3887 | 14 
       3822 | 34 
       3700 | 22 
       3617 | 09 
       3433 | 49 
       3427 | 48 
       3300 | 50 
       3096 | 32 
       2952 | 51 
       2933 | 01 
       2800 | 23 
       2578 | 35 
       2540 | 20 
       2123 | 42 
       1910 | 44 
       1871 | 43 
       1821 | 21 
       1697 | 33 
       1545 | 18 
       1280 | 19 
       1083 | 41 
        402 | 53 
(54 lignes)

 id |  ca   | nb_sales_by_clerk | is_best 
----+-------+-------------------+---------
 35 | 11080 |               143 | 1 
 4  | 10008 |               124 | 1 
 27 |  8951 |               135 | 1 
 8  |  8820 |               110 | 1 
 21 |  8030 |               106 | 1 
 10 |  8029 |               116 | 1 
 2  |  7649 |                95 | 1 
 18 |  7402 |               110 | 0 
 14 |  7391 |               112 | 0 
 30 |  7294 |                87 | 0 
 5  |  7221 |                91 | 0 
 29 |  7062 |                93 | 0 
 3  |  7041 |                87 | 0 
 32 |  6941 |                78 | 0 
 34 |  6864 |                89 | 0 
 1  |  6801 |                93 | 0 
 28 |  6648 |                87 | 0 
 7  |  6429 |                91 | 0 
 13 |  6335 |                71 | 0 
 31 |  6328 |                85 | 0 
 12 |  6020 |                77 | 0 
 11 |  5922 |                76 | 0 
 20 |  5893 |                74 | 0 
 16 |  5839 |                75 | 0 
 33 |  5386 |                70 | 0 
 25 |  5231 |                72 | 0 
 15 |  4993 |                70 | 0 
 24 |  4846 |                66 | 0 
 9  |  4556 |                58 | 0 
 19 |  4234 |                56 | 0 
 22 |  3972 |                59 | 0 
 26 |  3833 |                58 | 0 
 23 |  3789 |                58 | 0 
 17 |  3624 |                45 | 0 
 6  |  3562 |                49 | 0 
(35 lignes)

